…
ALWAYS TRY TO UNDERSTAND YOUR DATA FIRST

``` r
range(d$year)
```

    [1] 1896 2017

``` r
count(d, winner)
```

    # A tibble: 122 × 2
       winner               n
       <chr>            <int>
     1 *Omar Khayyam        1
     2 *Tomy Lee            1
     3 Affirmed             1
     4 Agile                1
     5 Alan-a-Dale          1
     6 Always Dreaming      1
     7 Alysheba             1
     8 American Pharoah     1
     9 Animal Kingdom       1
    10 Assault              1
    # ℹ 112 more rows
…
